Rintro 2024 - 09: Data visualization with ggplot2
…
Labels, Title, Legend

Theme/Style

Our dataset

library(tidyverse)

rnaseq_file = "https://raw.githubusercontent.com/maxplanck-ie/Rintro/2024.04/qmd/data/rnaseq.csv"

rna = read_csv(rnaseq_file)

rna 

# A tibble: 32,428 x 19
   gene    sample  expression organism   age sex   infection strain  time tissue
   <chr>   <chr>        <dbl> <chr>    <dbl> <chr> <chr>     <chr>  <dbl> <chr> 
 1 Asl     GSM254~       1170 Mus mus~     8 Fema~ Influenz~ C57BL~     8 Cereb~
 2 Apod    GSM254~      36194 Mus mus~     8 Fema~ Influenz~ C57BL~     8 Cereb~
 3 Cyp2d22 GSM254~       4060 Mus mus~     8 Fema~ Influenz~ C57BL~     8 Cereb~
 4 Klk6    GSM254~        287 Mus mus~     8 Fema~ Influenz~ C57BL~     8 Cereb~
 5 Fcrls   GSM254~         85 Mus mus~     8 Fema~ Influenz~ C57BL~     8 Cereb~
 6 Slc2a4  GSM254~        782 Mus mus~     8 Fema~ Influenz~ C57BL~     8 Cereb~
 7 Exd2    GSM254~       1619 Mus mus~     8 Fema~ Influenz~ C57BL~     8 Cereb~
 8 Gjc2    GSM254~        288 Mus mus~     8 Fema~ Influenz~ C57BL~     8 Cereb~
 9 Plp1    GSM254~      43217 Mus mus~     8 Fema~ Influenz~ C57BL~     8 Cereb~
10 Gnb4    GSM254~       1071 Mus mus~     8 Fema~ Influenz~ C57BL~     8 Cereb~
# i 32,418 more rows
# i 9 more variables: mouse <dbl>, ENTREZID <dbl>, product <chr>,
#   ensembl_gene_id <chr>, external_synonym <chr>, chromosome_name <chr>,
#   gene_biotype <chr>, phenotype_description <chr>,
#   hsapiens_homolog_associated_gene_name <chr>
…
ggplot2 in action - geom_points()

Note that are we using “escaped” numbers

rna_fc = rna %>% select(gene, time,
                         gene_biotype, expression_log) %>%
  group_by(gene, time, gene_biotype) %>%
  summarize(mean_exp = mean(expression_log)) %>%
  pivot_wider(names_from = time,
              values_from = mean_exp) %>%
  mutate(time_8_vs_0 = `8` - `0`, time_4_vs_0 = `4` - `0`)

rna_fc

# A tibble: 1,474 x 7
# Groups:   gene [1,474]
   gene     gene_biotype     `0`   `4`   `8` time_8_vs_0 time_4_vs_0
   <chr>    <chr>          <dbl> <dbl> <dbl>       <dbl>       <dbl>
 1 AI504432 lncRNA         10.0  10.1   9.97     -0.0357     0.0754 
 2 AW046200 lncRNA          7.28  7.23  6.35     -0.930     -0.0497 
 3 AW551984 protein_coding  7.86  7.26  8.19      0.334     -0.596  
 4 Aamp     protein_coding 12.2  12.2  12.2       0.0391     0.0754 
 5 Abca12   protein_coding  2.51  2.34  2.33     -0.180     -0.173  
 6 Abcc8    protein_coding 11.3  11.3  11.2      -0.164      0.0234 
 7 Abhd14a  protein_coding  9.20  9.08  8.75     -0.445     -0.115  
 8 Abi2     protein_coding 12.2  12.2  12.3       0.0158    -0.00129
 9 Abi3bp   protein_coding 10.2  10.0   9.57     -0.622     -0.154  
10 Abl2     protein_coding 11.1  11.0  11.1      -0.0271    -0.0793 
# i 1,464 more rows
…
rna_fc = rna_fc %>% arrange(desc(time_8_vs_0))

genes_selected = rna_fc$gene[1:10]

sub_rna <- rna %>%
    filter(gene %in% genes_selected)

mean_exp_by_time <- sub_rna %>%
  group_by(gene,time) %>%
    summarize(mean_exp = mean(expression_log))

mean_exp_by_time

# A tibble: 30 x 3
# Groups:   gene [10]
   gene   time mean_exp
   <chr> <dbl>    <dbl>
 1 Acr       0     5.07
 2 Acr       4     5.54
 3 Acr       8     7.31
 4 Aipl1     0     3.70
 5 Aipl1     4     3.89
 6 Aipl1     8     6.56
 7 Bst1      0     3.20
 8 Bst1      4     3.77
 9 Bst1      8     5.22
10 Chil3     0     4.00
# i 20 more rows
…
ggplot2 in action - facet_wrap()

To plot the same per sex, we need to generate a new dataset

mean_exp_by_time_sex <- sub_rna %>%
  group_by(gene, time, sex) %>%
    summarize(mean_exp = mean(expression_log))

mean_exp_by_time_sex

# A tibble: 60 x 4
# Groups:   gene, time [30]
   gene   time sex    mean_exp
   <chr> <dbl> <chr>     <dbl>
 1 Acr       0 Female     5.13
 2 Acr       0 Male       5.00
 3 Acr       4 Female     5.93
 4 Acr       4 Male       5.15
 5 Acr       8 Female     7.27
 6 Acr       8 Male       7.36
 7 Aipl1     0 Female     3.67
 8 Aipl1     0 Male       3.73
 9 Aipl1     4 Female     4.07
10 Aipl1     4 Male       3.72
# i 50 more rows
…
