Data Import with Tidyverse
…
library(readxl)
full_path <- file.path(path, "2010_bigfive_regents.xls")
excel_sheets(full_path)

[1] "Sheet1" "Sheet2" "Sheet3"

readxl:: in action

library(readxl)
full_path <- file.path(path, "2010_bigfive_regents.xls")
sheet_one <- read_xls(full_path, sheet = "Sheet1")
sheet_one

# A tibble: 104 × 6
   label     `INTEGRATED ALGEBRA` `GLOBAL HISTORY` LIVING ENVI…¹ ENGLISH U.S. …²
   <chr>                    <dbl>            <dbl>         <dbl>   <dbl>   <dbl>
 1 test_year                 2010             2010          2010    2010    2010
 2 Scores                  131024           113804        104201  103886   91756
 3 0                           56               55            66     165      65
 4 1                           NA                8             3      69       4
 5 2                            1                9             2     237      16
 6 3                           NA                3             1     190      10
 7 4                            3               15             1     109       6
 8 5                            2               11            10     122       8
 9 6                            4               29             3     151       7
10 7                            1               37             2     175      12
# … with 94 more rows, and abbreviated variable names ¹​`LIVING ENVIRONMENT`,
#   ²​`U.S. HISTORY`
…
