Tidy Data
…
Converting wide to tidy data

The pivot_longer() function converts wide data into tidy data.

The second argument specifies the columns containing values to be moved into a single column.

By default, the new column of values is called value and the column containing the original names is called name.

pivot_longer() in action

wide_data %>% pivot_longer(`1960`:`2015`)

# A tibble: 112 × 3
   country name  value
   <chr>   <chr> <dbl>
 1 Germany 1960   2.41
 2 Germany 1961   2.44
 3 Germany 1962   2.47
 4 Germany 1963   2.49
 5 Germany 1964   2.49
 6 Germany 1965   2.48
 7 Germany 1966   2.44
 8 Germany 1967   2.37
 9 Germany 1968   2.28
10 Germany 1969   2.17
# … with 102 more rows

pivot_longer() in action

# another way to do this - only country isn't being pivoted
wide_data %>% pivot_longer(-country)

# A tibble: 112 × 3
   country name  value
   <chr>   <chr> <dbl>
 1 Germany 1960   2.41
 2 Germany 1961   2.44
 3 Germany 1962   2.47
 4 Germany 1963   2.49
 5 Germany 1964   2.49
 6 Germany 1965   2.48
 7 Germany 1966   2.44
 8 Germany 1967   2.37
 9 Germany 1968   2.28
10 Germany 1969   2.17
# … with 102 more rows
…
Exercise

Convert the wide format to a tidy format.

Use ggplot to plot CO2 vs. month with a different curve per year

Exercise - part 1

co2_tidy <- pivot_longer(co2_wide, -year, names_to = "month", values_to = "co2")
co2_tidy

# A tibble: 468 × 3
   year  month   co2
   <chr> <chr> <dbl>
 1 1959  1      315.
 2 1959  2      316.
 3 1959  3      316.
 4 1959  4      318.
 5 1959  5      318.
 6 1959  6      318 
 7 1959  7      316.
 8 1959  8      315.
 9 1959  9      314.
10 1959  10     313.
# … with 458 more rows
…
dat$name[1:5]

[1] "1960_fertility"       "1960_life_expectancy" "1961_fertility"      
[4] "1961_life_expectancy" "1962_fertility"      

separate() in action

# separate on underscores
dat %>% separate(name, c("year", "name"), sep = "_")

# A tibble: 224 × 4
   country year  name      value
   <chr>   <chr> <chr>     <dbl>
 1 Germany 1960  fertility  2.41
 2 Germany 1960  life      69.3 
 3 Germany 1961  fertility  2.44
 4 Germany 1961  life      69.8 
 5 Germany 1962  fertility  2.47
 6 Germany 1962  life      70.0 
 7 Germany 1963  fertility  2.49
 8 Germany 1963  life      70.1 
 9 Germany 1964  fertility  2.49
10 Germany 1964  life      70.7 
# … with 214 more rows

separate() in action

# separate on underscores (the default), convert years to numeric
dat %>% separate(name, c("year", "name"), convert = TRUE)

# A tibble: 224 × 4
   country  year name      value
   <chr>   <int> <chr>     <dbl>
 1 Germany  1960 fertility  2.41
 2 Germany  1960 life      69.3 
 3 Germany  1961 fertility  2.44
 4 Germany  1961 life      69.8 
 5 Germany  1962 fertility  2.47
 6 Germany  1962 life      70.0 
 7 Germany  1963 fertility  2.49
 8 Germany  1963 life      70.1 
 9 Germany  1964 fertility  2.49
10 Germany  1964 life      70.7 
# … with 214 more rows

separate() in action

# separate on underscores
# split on all underscores, pad empty cells with NA
dat %>% separate(name, c("year", "name_1", "name_2"), 
                 fill = "right", convert = TRUE)

# A tibble: 224 × 5
   country  year name_1    name_2     value
   <chr>   <int> <chr>     <chr>      <dbl>
 1 Germany  1960 fertility <NA>        2.41
 2 Germany  1960 life      expectancy 69.3 
 3 Germany  1961 fertility <NA>        2.44
 4 Germany  1961 life      expectancy 69.8 
 5 Germany  1962 fertility <NA>        2.47
 6 Germany  1962 life      expectancy 70.0 
 7 Germany  1963 fertility <NA>        2.49
 8 Germany  1963 life      expectancy 70.1 
 9 Germany  1964 fertility <NA>        2.49
10 Germany  1964 life      expectancy 70.7 
# … with 214 more rows

separate() in action

# split on first underscore but keep life_expectancy merged
dat %>% separate(name, c("year", "name"), sep = "_", 
                 extra = "merge", convert = TRUE)

# A tibble: 224 × 4
   country  year name            value
   <chr>   <int> <chr>           <dbl>
 1 Germany  1960 fertility        2.41
 2 Germany  1960 life_expectancy 69.3 
 3 Germany  1961 fertility        2.44
 4 Germany  1961 life_expectancy 69.8 
 5 Germany  1962 fertility        2.47
 6 Germany  1962 life_expectancy 70.0 
 7 Germany  1963 fertility        2.49
 8 Germany  1963 life_expectancy 70.1 
 9 Germany  1964 fertility        2.49
10 Germany  1964 life_expectancy 70.7 
# … with 214 more rows

separate() in action

# separate then create a new column for each variable using pivot_wider
dat %>% separate(name, c("year", "name"), sep = "_", 
                 extra = "merge", convert = TRUE) %>%
  pivot_wider()

# A tibble: 112 × 4
   country  year fertility life_expectancy
   <chr>   <int>     <dbl>           <dbl>
 1 Germany  1960      2.41            69.3
 2 Germany  1961      2.44            69.8
 3 Germany  1962      2.47            70.0
 4 Germany  1963      2.49            70.1
 5 Germany  1964      2.49            70.7
 6 Germany  1965      2.48            70.6
 7 Germany  1966      2.44            70.8
 8 Germany  1967      2.37            71.0
 9 Germany  1968      2.28            70.6
10 Germany  1969      2.17            70.5
# … with 102 more rows

unite()

does the opposite of separate()

unite() in action

# what if we had used this suboptimal way of separating
dat %>% 
  separate(name, c("year", "name_1", "name_2"), 
           fill = "right", convert = TRUE)

# A tibble: 224 × 5
   country  year name_1    name_2     value
   <chr>   <int> <chr>     <chr>      <dbl>
 1 Germany  1960 fertility <NA>        2.41
 2 Germany  1960 life      expectancy 69.3 
 3 Germany  1961 fertility <NA>        2.44
 4 Germany  1961 life      expectancy 69.8 
 5 Germany  1962 fertility <NA>        2.47
 6 Germany  1962 life      expectancy 70.0 
 7 Germany  1963 fertility <NA>        2.49
 8 Germany  1963 life      expectancy 70.1 
 9 Germany  1964 fertility <NA>        2.49
10 Germany  1964 life      expectancy 70.7 
# … with 214 more rows

unite() in action

# we could unite the second and third columns using unite()
dat %>% 
  separate(name, c("year", "name_1", "name_2"), 
           fill = "right", convert = TRUE) %>%
  unite(variable_name, name_1, name_2, sep="_")

# A tibble: 224 × 4
   country  year variable_name   value
   <chr>   <int> <chr>           <dbl>
 1 Germany  1960 fertility_NA     2.41
 2 Germany  1960 life_expectancy 69.3 
 3 Germany  1961 fertility_NA     2.44
 4 Germany  1961 life_expectancy 69.8 
 5 Germany  1962 fertility_NA     2.47
 6 Germany  1962 life_expectancy 70.0 
 7 Germany  1963 fertility_NA     2.49
 8 Germany  1963 life_expectancy 70.1 
 9 Germany  1964 fertility_NA     2.49
10 Germany  1964 life_expectancy 70.7 
# … with 214 more rows

unite() in action

# spread the columns
dat %>% 
  separate(name, c("year", "name_1", "name_2"), 
           fill = "right", convert = TRUE) %>%
  unite(name, name_1, name_2, sep="_") %>%
  pivot_wider(names_from = "name", values_from = "value") %>%
  rename(fertility = fertility_NA)

# A tibble: 112 × 4
   country  year fertility life_expectancy
   <chr>   <int>     <dbl>           <dbl>
 1 Germany  1960      2.41            69.3
 2 Germany  1961      2.44            69.8
 3 Germany  1962      2.47            70.0
 4 Germany  1963      2.49            70.1
 5 Germany  1964      2.49            70.7
 6 Germany  1965      2.48            70.6
 7 Germany  1966      2.44            70.8
 8 Germany  1967      2.37            71.0
 9 Germany  1968      2.28            70.6
10 Germany  1969      2.17            70.5
# … with 102 more rows
…
